[
  {
    "p.my-class1.my-class2": "class"
  },
  {
    "p.my-class1#my-id1": "hello"
  },
  {
    "p.my-class1#my-id1": [
      {
        "p.my-class1.my-class2": "class"
      },
      {
        "p.my-class1#my-id1": "hello"
      }
    ]
  },
  {
    "p#my-id1": "hello"
  },
  {
    "p.my-class1#my-id1.my-class2": "hello"
  },
  {
    "p#my-id1.my-class1.my-class2": "hello"
  },
  {
    "p.my-class#my-id": "hello",
    "p.my-class1.my-class2": "example<a>asd</a>"
  }
]